EDA of Google Play Store
…
I am going to remove the android version column because it has many NA values and is already very poorly defined.

#remove android version
gplay$android_ver<- NULL

For rating and size I will use the average rating and size of the category to fill missing values.

avg_by_cat<- gplay %>% 
                select(rating, size, category) %>% 
                group_by(category) %>%
                summarise( avg_rating=mean(rating, na.rm= TRUE) , avg_size= mean(size, na.rm= TRUE))
avg_by_cat

## # A tibble: 33 x 3
##    category            avg_rating avg_size
##    <fct>                    <dbl>    <dbl>
##  1 ART_AND_DESIGN            4.36     12.4
##  2 AUTO_AND_VEHICLES         4.19     34.5
##  3 BEAUTY                    4.28     13.8
##  4 BOOKS_AND_REFERENCE       4.34     40.6
##  5 BUSINESS                  4.10     26.8
##  6 COMICS                    4.18     35.3
##  7 COMMUNICATION             4.12     59.2
##  8 DATING                    3.97     15.8
##  9 EDUCATION                 4.36     31.2
## 10 ENTERTAINMENT             4.14     23.0
## #  with 23 more rows
…
